com/blogapp/service/cloud/CloudinaryCloudStorageServiceImplTest.class
com/blogapp/BlogAppApplicationTests.class
com/blogapp/data/repository/PostRepositoryTest.class
com/blogapp/service/post/PostServiceImplTest.class
